Suite/Test/Step Name,Browser,Description,Tag,Start time,End time,Duration,Status
Another Login invalid with Data Binding,Chrome 114.0.0.0,,,2023-06-27 18:29:29,2023-06-27 18:30:04,35.388s,PASSED
,,,,,,,
Test Cases/TC-03 login invalid user data binding,Chrome 114.0.0.0,,,2023-06-27 18:29:29,2023-06-27 18:29:38,8.861s,PASSED
openBrowser(urlWeb),Chrome 114.0.0.0,,,2023-06-27 18:29:30,2023-06-27 18:29:34,3.632s,PASSED
"setText(findTestObject(""Login page/inputUsername""), username)",Chrome 114.0.0.0,,,2023-06-27 18:29:34,2023-06-27 18:29:35,0.977s,PASSED
"setText(findTestObject(""Login page/inputPassword""), password)",Chrome 114.0.0.0,,,2023-06-27 18:29:35,2023-06-27 18:29:35,0.878s,PASSED
"click(findTestObject(""Login page/loginButton""))",Chrome 114.0.0.0,,,2023-06-27 18:29:35,2023-06-27 18:29:36,0.533s,PASSED
"verifyElementVisible(findTestObject(""Login page/verifyLockedUser""), CONTINUE_ON_FAILURE)",Chrome 114.0.0.0,,,2023-06-27 18:29:36,2023-06-27 18:29:37,0.564s,PASSED
"verifyElementText(findTestObject(""Login page/verifyLockedUser""), ""Epic sadface: Username and password do not match any user in this service"", CONTINUE_ON_FAILURE)",Chrome 114.0.0.0,,,2023-06-27 18:29:37,2023-06-27 18:29:37,0.412s,PASSED
closeBrowser(),Chrome 114.0.0.0,,,2023-06-27 18:29:37,2023-06-27 18:29:38,1.410s,PASSED
,,,,,,,
Test Cases/TC-03 login invalid user data binding,Chrome 114.0.0.0,,,2023-06-27 18:29:38,2023-06-27 18:29:44,5.940s,PASSED
openBrowser(urlWeb),Chrome 114.0.0.0,,,2023-06-27 18:29:38,2023-06-27 18:29:41,2.318s,PASSED
"setText(findTestObject(""Login page/inputUsername""), username)",Chrome 114.0.0.0,,,2023-06-27 18:29:41,2023-06-27 18:29:42,0.855s,PASSED
"setText(findTestObject(""Login page/inputPassword""), password)",Chrome 114.0.0.0,,,2023-06-27 18:29:42,2023-06-27 18:29:42,0.783s,PASSED
"click(findTestObject(""Login page/loginButton""))",Chrome 114.0.0.0,,,2023-06-27 18:29:42,2023-06-27 18:29:43,0.409s,PASSED
"verifyElementVisible(findTestObject(""Login page/verifyLockedUser""), CONTINUE_ON_FAILURE)",Chrome 114.0.0.0,,,2023-06-27 18:29:43,2023-06-27 18:29:43,0.506s,PASSED
"verifyElementText(findTestObject(""Login page/verifyLockedUser""), ""Epic sadface: Username and password do not match any user in this service"", CONTINUE_ON_FAILURE)",Chrome 114.0.0.0,,,2023-06-27 18:29:43,2023-06-27 18:29:44,0.390s,PASSED
closeBrowser(),Chrome 114.0.0.0,,,2023-06-27 18:29:44,2023-06-27 18:29:44,0.669s,PASSED
,,,,,,,
Test Cases/TC-03 login invalid user data binding,Chrome 114.0.0.0,,,2023-06-27 18:29:44,2023-06-27 18:29:51,6.373s,PASSED
openBrowser(urlWeb),Chrome 114.0.0.0,,,2023-06-27 18:29:44,2023-06-27 18:29:47,2.228s,PASSED
"setText(findTestObject(""Login page/inputUsername""), username)",Chrome 114.0.0.0,,,2023-06-27 18:29:47,2023-06-27 18:29:47,0.849s,PASSED
"setText(findTestObject(""Login page/inputPassword""), password)",Chrome 114.0.0.0,,,2023-06-27 18:29:47,2023-06-27 18:29:48,0.800s,PASSED
"click(findTestObject(""Login page/loginButton""))",Chrome 114.0.0.0,,,2023-06-27 18:29:48,2023-06-27 18:29:49,0.402s,PASSED
"verifyElementVisible(findTestObject(""Login page/verifyLockedUser""), CONTINUE_ON_FAILURE)",Chrome 114.0.0.0,,,2023-06-27 18:29:49,2023-06-27 18:29:49,0.522s,PASSED
"verifyElementText(findTestObject(""Login page/verifyLockedUser""), ""Epic sadface: Username and password do not match any user in this service"", CONTINUE_ON_FAILURE)",Chrome 114.0.0.0,,,2023-06-27 18:29:49,2023-06-27 18:29:50,0.391s,PASSED
closeBrowser(),Chrome 114.0.0.0,,,2023-06-27 18:29:50,2023-06-27 18:29:51,1.171s,PASSED
,,,,,,,
Test Cases/TC-03 login invalid user data binding,Chrome 114.0.0.0,,,2023-06-27 18:29:51,2023-06-27 18:29:57,6.473s,PASSED
openBrowser(urlWeb),Chrome 114.0.0.0,,,2023-06-27 18:29:51,2023-06-27 18:29:53,2.285s,PASSED
"setText(findTestObject(""Login page/inputUsername""), username)",Chrome 114.0.0.0,,,2023-06-27 18:29:53,2023-06-27 18:29:54,0.872s,PASSED
"setText(findTestObject(""Login page/inputPassword""), password)",Chrome 114.0.0.0,,,2023-06-27 18:29:54,2023-06-27 18:29:55,0.801s,PASSED
"click(findTestObject(""Login page/loginButton""))",Chrome 114.0.0.0,,,2023-06-27 18:29:55,2023-06-27 18:29:55,0.440s,PASSED
"verifyElementVisible(findTestObject(""Login page/verifyLockedUser""), CONTINUE_ON_FAILURE)",Chrome 114.0.0.0,,,2023-06-27 18:29:55,2023-06-27 18:29:56,0.507s,PASSED
"verifyElementText(findTestObject(""Login page/verifyLockedUser""), ""Epic sadface: Username and password do not match any user in this service"", CONTINUE_ON_FAILURE)",Chrome 114.0.0.0,,,2023-06-27 18:29:56,2023-06-27 18:29:56,0.391s,PASSED
closeBrowser(),Chrome 114.0.0.0,,,2023-06-27 18:29:56,2023-06-27 18:29:57,1.169s,PASSED
,,,,,,,
Test Cases/TC-03 login invalid user data binding,Chrome 114.0.0.0,,,2023-06-27 18:29:57,2023-06-27 18:30:04,7.205s,PASSED
openBrowser(urlWeb),Chrome 114.0.0.0,,,2023-06-27 18:29:57,2023-06-27 18:30:00,2.259s,PASSED
"setText(findTestObject(""Login page/inputUsername""), username)",Chrome 114.0.0.0,,,2023-06-27 18:30:00,2023-06-27 18:30:01,1.149s,PASSED
"setText(findTestObject(""Login page/inputPassword""), password)",Chrome 114.0.0.0,,,2023-06-27 18:30:01,2023-06-27 18:30:01,0.794s,PASSED
"click(findTestObject(""Login page/loginButton""))",Chrome 114.0.0.0,,,2023-06-27 18:30:01,2023-06-27 18:30:02,0.466s,PASSED
"verifyElementVisible(findTestObject(""Login page/verifyLockedUser""), CONTINUE_ON_FAILURE)",Chrome 114.0.0.0,,,2023-06-27 18:30:02,2023-06-27 18:30:02,0.510s,PASSED
"verifyElementText(findTestObject(""Login page/verifyLockedUser""), ""Epic sadface: Username and password do not match any user in this service"", CONTINUE_ON_FAILURE)",Chrome 114.0.0.0,,,2023-06-27 18:30:02,2023-06-27 18:30:03,0.390s,PASSED
closeBrowser(),Chrome 114.0.0.0,,,2023-06-27 18:30:03,2023-06-27 18:30:04,1.627s,PASSED
